{
    "image": "https://catagolue.hatsya.com/autogen/nfts/2.gif",
    "external_url": "https://catagolue.hatsya.com/nfts/2",
    "name": "Sir Robin",
    "attributes": [
        {
            "display_type": "date",
            "trait_type": "discovery date",
            "value": 1520337600
        },
        {
            "trait_type": "object type",
            "value": "spaceship"
        },
        {
            "trait_type": "period",
            "value": 6
        },
        {
            "trait_type": "direction",
            "value": "oblique"
        },
        {
            "trait_type": "speed",
            "value": "(2,1)c/6"
        }
    ],
    "background_color": "000000",
    "description": "The first elementary knightship to be discovered, based on a partial by Tom Rokicki.\n\nDiscovered by Adam P. Goucher on 2018-03-06.\n\nSee the [LifeWiki page](https://conwaylife.com/wiki/Sir_Robin) and [Catagolue page](https://catagolue.hatsya.com/nfts/2) for further information."
}